{
  "polyfillFiles": [
    "static/chunks/polyfills-1682bd92282ca2daa11e.js"
  ],
  "devFiles": [],
  "ampDevFiles": [],
  "lowPriorityFiles": [
    "static/H05Mcw468gBwifQ_o7TfH/_buildManifest.js",
    "static/H05Mcw468gBwifQ_o7TfH/_ssgManifest.js"
  ],
  "pages": {
    "/": [
      "static/chunks/main-b0baae2ecfd97c857bc7.js",
      "static/chunks/webpack-a2789abc01397c993297.js",
      "static/chunks/framework.0c239260661ae1d12aa2.js",
      "static/css/7ee0949c.276b933f.chunk.css",
      "static/chunks/7ee0949c.a83a6a4548b93404854d.js",
      "static/chunks/bcda1b3a3ce15e3dd40276f12390cbe0717dbb07.2332d90d978bed32ccea.js",
      "static/chunks/2542adb62ec3171dc19203872ae9334f0b42d832.efd1e8ae60544679fa37.js",
      "static/css/pages/index.10c3fd33.chunk.css",
      "static/chunks/pages/index-52d1c53521b8113b4f7c.js"
    ],
    "/404": [
      "static/chunks/main-b0baae2ecfd97c857bc7.js",
      "static/chunks/webpack-a2789abc01397c993297.js",
      "static/chunks/framework.0c239260661ae1d12aa2.js",
      "static/chunks/bcda1b3a3ce15e3dd40276f12390cbe0717dbb07.2332d90d978bed32ccea.js",
      "static/chunks/pages/404-bc1c0f807d6602d22bc3.js"
    ],
    "/[page]": [
      "static/chunks/main-b0baae2ecfd97c857bc7.js",
      "static/chunks/webpack-a2789abc01397c993297.js",
      "static/chunks/framework.0c239260661ae1d12aa2.js",
      "static/css/7ee0949c.276b933f.chunk.css",
      "static/chunks/7ee0949c.a83a6a4548b93404854d.js",
      "static/chunks/bcda1b3a3ce15e3dd40276f12390cbe0717dbb07.2332d90d978bed32ccea.js",
      "static/chunks/2542adb62ec3171dc19203872ae9334f0b42d832.efd1e8ae60544679fa37.js",
      "static/css/pages/[page].10c3fd33.chunk.css",
      "static/chunks/pages/[page]-82eb6b364459ae53ef84.js"
    ],
    "/[page]/404": [
      "static/chunks/main-b0baae2ecfd97c857bc7.js",
      "static/chunks/webpack-a2789abc01397c993297.js",
      "static/chunks/framework.0c239260661ae1d12aa2.js",
      "static/chunks/bcda1b3a3ce15e3dd40276f12390cbe0717dbb07.2332d90d978bed32ccea.js",
      "static/chunks/pages/[page]/404-51f6fd0cc478e1e1dea9.js"
    ],
    "/[page]/Paypal/paypal": [
      "static/chunks/main-b0baae2ecfd97c857bc7.js",
      "static/chunks/webpack-a2789abc01397c993297.js",
      "static/chunks/framework.0c239260661ae1d12aa2.js",
      "static/chunks/b204aa8259e7f90e77813bb6462bb35b85edcef9.b546783c2f27fa91f3f5.js",
      "static/chunks/pages/[page]/Paypal/paypal-171079ed81504c95e2dd.js"
    ],
    "/[page]/about": [
      "static/chunks/main-b0baae2ecfd97c857bc7.js",
      "static/chunks/webpack-a2789abc01397c993297.js",
      "static/chunks/framework.0c239260661ae1d12aa2.js",
      "static/css/pages/[page]/about.1e3f75b7.chunk.css",
      "static/chunks/pages/[page]/about-bc3cf64e8a0bfdb0e402.js"
    ],
    "/[page]/allProduct": [
      "static/chunks/main-b0baae2ecfd97c857bc7.js",
      "static/chunks/webpack-a2789abc01397c993297.js",
      "static/chunks/framework.0c239260661ae1d12aa2.js",
      "static/css/7ee0949c.276b933f.chunk.css",
      "static/chunks/7ee0949c.a83a6a4548b93404854d.js",
      "static/chunks/bcda1b3a3ce15e3dd40276f12390cbe0717dbb07.2332d90d978bed32ccea.js",
      "static/chunks/2542adb62ec3171dc19203872ae9334f0b42d832.efd1e8ae60544679fa37.js",
      "static/css/pages/[page]/allProduct.10c3fd33.chunk.css",
      "static/chunks/pages/[page]/allProduct-d64dca72397e61976344.js"
    ],
    "/[page]/cart/viewCart": [
      "static/chunks/main-b0baae2ecfd97c857bc7.js",
      "static/chunks/webpack-a2789abc01397c993297.js",
      "static/chunks/framework.0c239260661ae1d12aa2.js",
      "static/chunks/bcda1b3a3ce15e3dd40276f12390cbe0717dbb07.2332d90d978bed32ccea.js",
      "static/chunks/214ed31c00e3da569d7de72520b0ff28b74d3880.efd353a6420efa758932.js",
      "static/chunks/pages/[page]/cart/viewCart-b5013145a22c727dce32.js"
    ],
    "/[page]/checkout/address": [
      "static/chunks/main-b0baae2ecfd97c857bc7.js",
      "static/chunks/webpack-a2789abc01397c993297.js",
      "static/chunks/framework.0c239260661ae1d12aa2.js",
      "static/chunks/bcda1b3a3ce15e3dd40276f12390cbe0717dbb07.2332d90d978bed32ccea.js",
      "static/chunks/214ed31c00e3da569d7de72520b0ff28b74d3880.efd353a6420efa758932.js",
      "static/chunks/e694128cb875260f2f217ab882f02e53d543a01c.fecfba9a2b7e06357325.js",
      "static/chunks/b204aa8259e7f90e77813bb6462bb35b85edcef9.b546783c2f27fa91f3f5.js",
      "static/chunks/2a6e53fcedcf10e3c3f9dad40e82c18e11dcfad2.c343141b717c7c24d6d3.js",
      "static/chunks/pages/[page]/checkout/address-a2726f1aef7e69b36da1.js"
    ],
    "/[page]/checkout/addressList": [
      "static/chunks/main-b0baae2ecfd97c857bc7.js",
      "static/chunks/webpack-a2789abc01397c993297.js",
      "static/chunks/framework.0c239260661ae1d12aa2.js",
      "static/chunks/bcda1b3a3ce15e3dd40276f12390cbe0717dbb07.2332d90d978bed32ccea.js",
      "static/chunks/214ed31c00e3da569d7de72520b0ff28b74d3880.efd353a6420efa758932.js",
      "static/chunks/e694128cb875260f2f217ab882f02e53d543a01c.fecfba9a2b7e06357325.js",
      "static/chunks/b204aa8259e7f90e77813bb6462bb35b85edcef9.b546783c2f27fa91f3f5.js",
      "static/chunks/2a6e53fcedcf10e3c3f9dad40e82c18e11dcfad2.c343141b717c7c24d6d3.js",
      "static/chunks/pages/[page]/checkout/addressList-9ac04461b93e9d129837.js"
    ],
    "/[page]/contactus": [
      "static/chunks/main-b0baae2ecfd97c857bc7.js",
      "static/chunks/webpack-a2789abc01397c993297.js",
      "static/chunks/framework.0c239260661ae1d12aa2.js",
      "static/chunks/pages/[page]/contactus-bc09afd1f894f63096da.js"
    ],
    "/[page]/login": [
      "static/chunks/main-b0baae2ecfd97c857bc7.js",
      "static/chunks/webpack-a2789abc01397c993297.js",
      "static/chunks/framework.0c239260661ae1d12aa2.js",
      "static/chunks/bcda1b3a3ce15e3dd40276f12390cbe0717dbb07.2332d90d978bed32ccea.js",
      "static/chunks/214ed31c00e3da569d7de72520b0ff28b74d3880.efd353a6420efa758932.js",
      "static/chunks/e694128cb875260f2f217ab882f02e53d543a01c.fecfba9a2b7e06357325.js",
      "static/chunks/pages/[page]/login-71c182329adf5ea06696.js"
    ],
    "/[page]/order/thankYou": [
      "static/chunks/main-b0baae2ecfd97c857bc7.js",
      "static/chunks/webpack-a2789abc01397c993297.js",
      "static/chunks/framework.0c239260661ae1d12aa2.js",
      "static/chunks/bcda1b3a3ce15e3dd40276f12390cbe0717dbb07.2332d90d978bed32ccea.js",
      "static/chunks/pages/[page]/order/thankYou-b10b1f2bbb5b1c87df87.js"
    ],
    "/[page]/product/[name]/[id]": [
      "static/chunks/main-b0baae2ecfd97c857bc7.js",
      "static/chunks/webpack-a2789abc01397c993297.js",
      "static/chunks/framework.0c239260661ae1d12aa2.js",
      "static/chunks/bcda1b3a3ce15e3dd40276f12390cbe0717dbb07.2332d90d978bed32ccea.js",
      "static/chunks/214ed31c00e3da569d7de72520b0ff28b74d3880.efd353a6420efa758932.js",
      "static/css/pages/[page]/product/[name]/[id].47ba41ed.chunk.css",
      "static/chunks/pages/[page]/product/[name]/[id]-26895dcf92f64aefc61a.js"
    ],
    "/[page]/product/productcategories/[categories]/[id]": [
      "static/chunks/main-b0baae2ecfd97c857bc7.js",
      "static/chunks/webpack-a2789abc01397c993297.js",
      "static/chunks/framework.0c239260661ae1d12aa2.js",
      "static/chunks/bcda1b3a3ce15e3dd40276f12390cbe0717dbb07.2332d90d978bed32ccea.js",
      "static/chunks/739475b4477d678ee7033d0cf752da38330e216c.49024e3da4ddbaed4ba2.js",
      "static/css/pages/[page]/product/productcategories/[categories]/[id].47ba41ed.chunk.css",
      "static/chunks/pages/[page]/product/productcategories/[categories]/[id]-b2424eb448fe1acac4fe.js"
    ],
    "/[page]/signup": [
      "static/chunks/main-b0baae2ecfd97c857bc7.js",
      "static/chunks/webpack-a2789abc01397c993297.js",
      "static/chunks/framework.0c239260661ae1d12aa2.js",
      "static/chunks/bcda1b3a3ce15e3dd40276f12390cbe0717dbb07.2332d90d978bed32ccea.js",
      "static/chunks/214ed31c00e3da569d7de72520b0ff28b74d3880.efd353a6420efa758932.js",
      "static/chunks/e694128cb875260f2f217ab882f02e53d543a01c.fecfba9a2b7e06357325.js",
      "static/chunks/pages/[page]/signup-acca056ddda9e7214527.js"
    ],
    "/[page]/user/profile": [
      "static/chunks/main-b0baae2ecfd97c857bc7.js",
      "static/chunks/webpack-a2789abc01397c993297.js",
      "static/chunks/framework.0c239260661ae1d12aa2.js",
      "static/chunks/214ed31c00e3da569d7de72520b0ff28b74d3880.efd353a6420efa758932.js",
      "static/chunks/e694128cb875260f2f217ab882f02e53d543a01c.fecfba9a2b7e06357325.js",
      "static/chunks/pages/[page]/user/profile-2fb258f0287c619fa840.js"
    ],
    "/[page]/wishlist/wishlist": [
      "static/chunks/main-b0baae2ecfd97c857bc7.js",
      "static/chunks/webpack-a2789abc01397c993297.js",
      "static/chunks/framework.0c239260661ae1d12aa2.js",
      "static/chunks/bcda1b3a3ce15e3dd40276f12390cbe0717dbb07.2332d90d978bed32ccea.js",
      "static/chunks/214ed31c00e3da569d7de72520b0ff28b74d3880.efd353a6420efa758932.js",
      "static/chunks/pages/[page]/wishlist/wishlist-b7101ad17dde34305eba.js"
    ],
    "/_app": [
      "static/chunks/main-b0baae2ecfd97c857bc7.js",
      "static/chunks/webpack-a2789abc01397c993297.js",
      "static/chunks/framework.0c239260661ae1d12aa2.js",
      "static/css/7ee0949c.276b933f.chunk.css",
      "static/chunks/7ee0949c.a83a6a4548b93404854d.js",
      "static/chunks/bcda1b3a3ce15e3dd40276f12390cbe0717dbb07.2332d90d978bed32ccea.js",
      "static/chunks/214ed31c00e3da569d7de72520b0ff28b74d3880.efd353a6420efa758932.js",
      "static/chunks/2542adb62ec3171dc19203872ae9334f0b42d832.efd1e8ae60544679fa37.js",
      "static/chunks/739475b4477d678ee7033d0cf752da38330e216c.49024e3da4ddbaed4ba2.js",
      "static/css/pages/_app.d9e5e26e.chunk.css",
      "static/chunks/pages/_app-3165fb2039d013cb8fa9.js"
    ],
    "/_error": [
      "static/chunks/main-b0baae2ecfd97c857bc7.js",
      "static/chunks/webpack-a2789abc01397c993297.js",
      "static/chunks/framework.0c239260661ae1d12aa2.js",
      "static/chunks/pages/_error-1b5846597c859dafdd32.js"
    ]
  },
  "ampFirstPages": []
}